{
  "project_info": {
    "project_number": "1053816962886",
    "firebase_url": "https://nauha-download.firebaseio.com",
    "project_id": "nauha-download",
    "storage_bucket": "nauha-download.appspot.com"
  },
  "client": [
    {
      "client_info": {
        "mobilesdk_app_id": "1:1053816962886:android:4d29cf696226e96e",
        "android_client_info": {
          "package_name": "com.faizal.downloadnauhafree"
        }
      },
      "oauth_client": [
        {
          "client_id": "1053816962886-5v954qa3t3rechk5hen59r5r60atvmci.apps.googleusercontent.com",
          "client_type": 1,
          "android_info": {
            "package_name": "com.faizal.downloadnauhafree",
            "certificate_hash": "114a3facdcda3b1004c28aa3d669998e6266a055"
          }
        },
        {
          "client_id": "1053816962886-5q2cakmcp3f4sfmdutbombg6bdt6crjs.apps.googleusercontent.com",
          "client_type": 1,
          "android_info": {
            "package_name": "com.faizal.downloadnauhafree",
            "certificate_hash": "de435e7c85e06036ab5470448e93c2c1b5460d80"
          }
        },
        {
          "client_id": "1053816962886-qu7127nsaosetqlnsne66tbnoru05ifp.apps.googleusercontent.com",
          "client_type": 3
        },
        {
          "client_id": "1053816962886-2ct4ppdi4j57id4f8srjmh6qfmkpv2pt.apps.googleusercontent.com",
          "client_type": 1,
          "android_info": {
            "package_name": "com.faizal.downloadnauhafree",
            "certificate_hash": "7da30e850315e07405df1d0c85d40405107203f2"
          }
        },
        {
          "client_id": "1053816962886-ak262m882oj0cpkg0dugh4u6rgns2mkr.apps.googleusercontent.com",
          "client_type": 3
        }
      ],
      "api_key": [
        {
          "current_key": "AIzaSyAfwdniIaXh5j_9ThDJN0qyjKAieHC1Hyg"
        }
      ],
      "services": {
        "analytics_service": {
          "status": 1
        },
        "appinvite_service": {
          "status": 2,
          "other_platform_oauth_client": [
            {
              "client_id": "1053816962886-qu7127nsaosetqlnsne66tbnoru05ifp.apps.googleusercontent.com",
              "client_type": 3
            }
          ]
        },
        "ads_service": {
          "status": 2
        }
      }
    }
  ],
  "configuration_version": "1"
}